^C:\USERS\OLE MAGNUS\ONEDRIVE\VS2013MASTERTESTPROJECTS\ROBOTCLIENT\ROBOTCLIENT\X64\DEBUG\CONFIGREADER.OBJ|C:\USERS\OLE MAGNUS\ONEDRIVE\VS2013MASTERTESTPROJECTS\ROBOTCLIENT\ROBOTCLIENT\X64\DEBUG\GLDYNAMICS.OBJ|C:\USERS\OLE MAGNUS\ONEDRIVE\VS2013MASTERTESTPROJECTS\ROBOTCLIENT\ROBOTCLIENT\X64\DEBUG\GLHUD.OBJ|C:\USERS\OLE MAGNUS\ONEDRIVE\VS2013MASTERTESTPROJECTS\ROBOTCLIENT\ROBOTCLIENT\X64\DEBUG\GLMODELING.OBJ|C:\USERS\OLE MAGNUS\ONEDRIVE\VS2013MASTERTESTPROJECTS\ROBOTCLIENT\ROBOTCLIENT\X64\DEBUG\LEAPMOTION_INTERFACE.OBJ|C:\USERS\OLE MAGNUS\ONEDRIVE\VS2013MASTERTESTPROJECTS\ROBOTCLIENT\ROBOTCLIENT\X64\DEBUG\NETWORKHANDLER.OBJ|C:\USERS\OLE MAGNUS\ONEDRIVE\VS2013MASTERTESTPROJECTS\ROBOTCLIENT\ROBOTCLIENT\X64\DEBUG\OCULUSRIFT_INTERFACE.OBJ|C:\USERS\OLE MAGNUS\ONEDRIVE\VS2013MASTERTESTPROJECTS\ROBOTCLIENT\ROBOTCLIENT\X64\DEBUG\OPENGL_INTERFACE.OBJ|C:\USERS\OLE MAGNUS\ONEDRIVE\VS2013MASTERTESTPROJECTS\ROBOTCLIENT\ROBOTCLIENT\X64\DEBUG\ROBOTCLIENT.OBJ|C:\USERS\OLE MAGNUS\ONEDRIVE\VS2013MASTERTESTPROJECTS\ROBOTCLIENT\ROBOTCLIENT\X64\DEBUG\ROBOTCLIENT.RES|C:\USERS\OLE MAGNUS\ONEDRIVE\VS2013MASTERTESTPROJECTS\ROBOTCLIENT\ROBOTCLIENT\X64\DEBUG\UTILITYFUNCTIONS.OBJ|C:\USERS\OLE MAGNUS\ONEDRIVE\VS2013MASTERTESTPROJECTS\ROBOTCLIENT\ROBOTCLIENT\X64\DEBUG\WEBCAMHANDLER.OBJ
/OUT:"C:\USERS\OLE MAGNUS\ONEDRIVE\VS2013MASTERTESTPROJECTS\ROBOTCLIENT\X64\DEBUG\ROBOTCLIENT.EXE" /INCREMENTAL /NOLOGO /LIBPATH:"C:\Users\Ole Magnus\OneDrive\VS2013MasterTestprojects\Libraries\opencv\build\x64\vc12\lib" /LIBPATH:"C:\Program Files\Microsoft SDKs\Kinect\v1.8\\lib\amd64" kinect10.lib ..\..\Libraries\OculusSDK_0.8.0.0\LibOVR\Lib\Windows\x64\Release\VS2013\LibOVR.lib opencv_world310d.lib "..\..\Libraries\glew-1.13.0\lib\Release\x64\glew32.lib" ..\..\Libraries\LeapSDK_3.1.2.40841\lib\x64\Leap.lib "..\..\Libraries\freetype-2.6.3\lib\x64\freetyped.lib" "C:\Program Files (x86)\Visual Leak Detector\lib\Win64\vld.lib" opengl32.lib glu32.lib Ws2_32.lib kernel32.lib user32.lib gdi32.lib winspool.lib comdlg32.lib advapi32.lib shell32.lib ole32.lib oleaut32.lib uuid.lib odbc32.lib odbccp32.lib Winmm.lib kernel32.lib user32.lib gdi32.lib winspool.lib comdlg32.lib advapi32.lib shell32.lib ole32.lib oleaut32.lib uuid.lib odbc32.lib odbccp32.lib /MANIFEST /MANIFESTUAC:"level='asInvoker' uiAccess='false'" /manifest:embed /DEBUG /PDB:"C:\USERS\OLE MAGNUS\ONEDRIVE\VS2013MASTERTESTPROJECTS\ROBOTCLIENT\X64\DEBUG\ROBOTCLIENT.PDB" /TLBID:1 /DYNAMICBASE /NXCOMPAT /IMPLIB:"C:\USERS\OLE MAGNUS\ONEDRIVE\VS2013MASTERTESTPROJECTS\ROBOTCLIENT\X64\DEBUG\ROBOTCLIENT.LIB" /MACHINE:X64 X64\DEBUG\ROBOTCLIENT.RESX64\DEBUG\CONFIGREADER.OBJX64\DEBUG\GLDYNAMICS.OBJX64\DEBUG\GLMODELING.OBJX64\DEBUG\LEAPMOTION_INTERFACE.OBJX64\DEBUG\NETWORKHANDLER.OBJX64\DEBUG\OCULUSRIFT_INTERFACE.OBJX64\DEBUG\OPENGL_INTERFACE.OBJX64\DEBUG\ROBOTCLIENT.OBJX64\DEBUG\UTILITYFUNCTIONS.OBJX64\DEBUG\WEBCAMHANDLER.OBJX64\DEBUG\GLHUD.OBJ
^C:\USERS\OLE MAGNUS\DESKTOP\MASTER THESIS\CLIENTSOFTWARE\ROBOTCLIENT\ROBOTCLIENT\X64\DEBUG\CONFIGREADER.OBJ|C:\USERS\OLE MAGNUS\DESKTOP\MASTER THESIS\CLIENTSOFTWARE\ROBOTCLIENT\ROBOTCLIENT\X64\DEBUG\GLDYNAMICS.OBJ|C:\USERS\OLE MAGNUS\DESKTOP\MASTER THESIS\CLIENTSOFTWARE\ROBOTCLIENT\ROBOTCLIENT\X64\DEBUG\GLHUD.OBJ|C:\USERS\OLE MAGNUS\DESKTOP\MASTER THESIS\CLIENTSOFTWARE\ROBOTCLIENT\ROBOTCLIENT\X64\DEBUG\GLMODELING.OBJ|C:\USERS\OLE MAGNUS\DESKTOP\MASTER THESIS\CLIENTSOFTWARE\ROBOTCLIENT\ROBOTCLIENT\X64\DEBUG\LEAPMOTION_INTERFACE.OBJ|C:\USERS\OLE MAGNUS\DESKTOP\MASTER THESIS\CLIENTSOFTWARE\ROBOTCLIENT\ROBOTCLIENT\X64\DEBUG\NETWORKHANDLER.OBJ|C:\USERS\OLE MAGNUS\DESKTOP\MASTER THESIS\CLIENTSOFTWARE\ROBOTCLIENT\ROBOTCLIENT\X64\DEBUG\OCULUSRIFT_INTERFACE.OBJ|C:\USERS\OLE MAGNUS\DESKTOP\MASTER THESIS\CLIENTSOFTWARE\ROBOTCLIENT\ROBOTCLIENT\X64\DEBUG\OPENGL_INTERFACE.OBJ|C:\USERS\OLE MAGNUS\DESKTOP\MASTER THESIS\CLIENTSOFTWARE\ROBOTCLIENT\ROBOTCLIENT\X64\DEBUG\ROBOTCLIENT.OBJ|C:\USERS\OLE MAGNUS\DESKTOP\MASTER THESIS\CLIENTSOFTWARE\ROBOTCLIENT\ROBOTCLIENT\X64\DEBUG\ROBOTCLIENT.RES|C:\USERS\OLE MAGNUS\DESKTOP\MASTER THESIS\CLIENTSOFTWARE\ROBOTCLIENT\ROBOTCLIENT\X64\DEBUG\UTILITYFUNCTIONS.OBJ|C:\USERS\OLE MAGNUS\DESKTOP\MASTER THESIS\CLIENTSOFTWARE\ROBOTCLIENT\ROBOTCLIENT\X64\DEBUG\WEBCAMHANDLER.OBJ
/OUT:"C:\USERS\OLE MAGNUS\DESKTOP\MASTER THESIS\CLIENTSOFTWARE\ROBOTCLIENT\X64\DEBUG\ROBOTCLIENT.EXE" /INCREMENTAL /NOLOGO /LIBPATH:"C:\Users\Ole Magnus\OneDrive\VS2013MasterTestprojects\Libraries\opencv\build\x64\vc12\lib" ..\..\Libraries\OculusSDK_0.8.0.0\LibOVR\Lib\Windows\x64\Release\VS2013\LibOVR.lib opencv_world310d.lib "..\..\Libraries\glew-1.13.0\lib\Release\x64\glew32.lib" ..\..\Libraries\LeapSDK_3.1.2.40841\lib\x64\Leap.lib "..\..\Libraries\freetype-2.6.3\lib\x64\freetyped.lib" opengl32.lib glu32.lib Ws2_32.lib kernel32.lib user32.lib gdi32.lib winspool.lib comdlg32.lib advapi32.lib shell32.lib ole32.lib oleaut32.lib uuid.lib odbc32.lib odbccp32.lib Winmm.lib kernel32.lib user32.lib gdi32.lib winspool.lib comdlg32.lib advapi32.lib shell32.lib ole32.lib oleaut32.lib uuid.lib odbc32.lib odbccp32.lib /MANIFEST /MANIFESTUAC:"level='asInvoker' uiAccess='false'" /manifest:embed /DEBUG /PDB:"C:\USERS\OLE MAGNUS\DESKTOP\MASTER THESIS\CLIENTSOFTWARE\ROBOTCLIENT\X64\DEBUG\ROBOTCLIENT.PDB" /TLBID:1 /DYNAMICBASE /NXCOMPAT /IMPLIB:"C:\USERS\OLE MAGNUS\DESKTOP\MASTER THESIS\CLIENTSOFTWARE\ROBOTCLIENT\X64\DEBUG\ROBOTCLIENT.LIB" /MACHINE:X64 X64\DEBUG\ROBOTCLIENT.RESX64\DEBUG\CONFIGREADER.OBJX64\DEBUG\GLDYNAMICS.OBJX64\DEBUG\GLMODELING.OBJX64\DEBUG\LEAPMOTION_INTERFACE.OBJX64\DEBUG\NETWORKHANDLER.OBJX64\DEBUG\OCULUSRIFT_INTERFACE.OBJX64\DEBUG\OPENGL_INTERFACE.OBJX64\DEBUG\ROBOTCLIENT.OBJX64\DEBUG\UTILITYFUNCTIONS.OBJX64\DEBUG\WEBCAMHANDLER.OBJX64\DEBUG\GLHUD.OBJ
