^C:\USERS\OLE MAGNUS\ONEDRIVE\VS2013MASTERTESTPROJECTS\ROBOTCLIENT\ROBOTCLIENT\X64\DEBUG\CONFIGREADER.OBJ|C:\USERS\OLE MAGNUS\ONEDRIVE\VS2013MASTERTESTPROJECTS\ROBOTCLIENT\ROBOTCLIENT\X64\DEBUG\GLDYNAMICS.OBJ|C:\USERS\OLE MAGNUS\ONEDRIVE\VS2013MASTERTESTPROJECTS\ROBOTCLIENT\ROBOTCLIENT\X64\DEBUG\GLHUD.OBJ|C:\USERS\OLE MAGNUS\ONEDRIVE\VS2013MASTERTESTPROJECTS\ROBOTCLIENT\ROBOTCLIENT\X64\DEBUG\GLMODELING.OBJ|C:\USERS\OLE MAGNUS\ONEDRIVE\VS2013MASTERTESTPROJECTS\ROBOTCLIENT\ROBOTCLIENT\X64\DEBUG\LEAPMOTION_INTERFACE.OBJ|C:\USERS\OLE MAGNUS\ONEDRIVE\VS2013MASTERTESTPROJECTS\ROBOTCLIENT\ROBOTCLIENT\X64\DEBUG\NETWORKHANDLER.OBJ|C:\USERS\OLE MAGNUS\ONEDRIVE\VS2013MASTERTESTPROJECTS\ROBOTCLIENT\ROBOTCLIENT\X64\DEBUG\OCULUSRIFT_INTERFACE.OBJ|C:\USERS\OLE MAGNUS\ONEDRIVE\VS2013MASTERTESTPROJECTS\ROBOTCLIENT\ROBOTCLIENT\X64\DEBUG\OPENGL_INTERFACE.OBJ|C:\USERS\OLE MAGNUS\ONEDRIVE\VS2013MASTERTESTPROJECTS\ROBOTCLIENT\ROBOTCLIENT\X64\DEBUG\ROBOTCLIENT.OBJ|C:\USERS\OLE MAGNUS\ONEDRIVE\VS2013MASTERTESTPROJECTS\ROBOTCLIENT\ROBOTCLIENT\X64\DEBUG\ROBOTCLIENT.RES|C:\USERS\OLE MAGNUS\ONEDRIVE\VS2013MASTERTESTPROJECTS\ROBOTCLIENT\ROBOTCLIENT\X64\DEBUG\UTILITYFUNCTIONS.OBJ|C:\USERS\OLE MAGNUS\ONEDRIVE\VS2013MASTERTESTPROJECTS\ROBOTCLIENT\ROBOTCLIENT\X64\DEBUG\WEBCAMHANDLER.OBJ
C:\USERS\OLE MAGNUS\ONEDRIVE\VS2013MASTERTESTPROJECTS\ROBOTCLIENT\X64\DEBUG\ROBOTCLIENT.ILK
C:\USERS\OLE MAGNUS\ONEDRIVE\VS2013MASTERTESTPROJECTS\ROBOTCLIENT\X64\DEBUG\ROBOTCLIENT.EXE
C:\USERS\OLE MAGNUS\ONEDRIVE\VS2013MASTERTESTPROJECTS\ROBOTCLIENT\X64\DEBUG\ROBOTCLIENT.PDB
^C:\USERS\OLE MAGNUS\DESKTOP\MASTER THESIS\CLIENTSOFTWARE\ROBOTCLIENT\ROBOTCLIENT\X64\DEBUG\CONFIGREADER.OBJ|C:\USERS\OLE MAGNUS\DESKTOP\MASTER THESIS\CLIENTSOFTWARE\ROBOTCLIENT\ROBOTCLIENT\X64\DEBUG\GLDYNAMICS.OBJ|C:\USERS\OLE MAGNUS\DESKTOP\MASTER THESIS\CLIENTSOFTWARE\ROBOTCLIENT\ROBOTCLIENT\X64\DEBUG\GLHUD.OBJ|C:\USERS\OLE MAGNUS\DESKTOP\MASTER THESIS\CLIENTSOFTWARE\ROBOTCLIENT\ROBOTCLIENT\X64\DEBUG\GLMODELING.OBJ|C:\USERS\OLE MAGNUS\DESKTOP\MASTER THESIS\CLIENTSOFTWARE\ROBOTCLIENT\ROBOTCLIENT\X64\DEBUG\LEAPMOTION_INTERFACE.OBJ|C:\USERS\OLE MAGNUS\DESKTOP\MASTER THESIS\CLIENTSOFTWARE\ROBOTCLIENT\ROBOTCLIENT\X64\DEBUG\NETWORKHANDLER.OBJ|C:\USERS\OLE MAGNUS\DESKTOP\MASTER THESIS\CLIENTSOFTWARE\ROBOTCLIENT\ROBOTCLIENT\X64\DEBUG\OCULUSRIFT_INTERFACE.OBJ|C:\USERS\OLE MAGNUS\DESKTOP\MASTER THESIS\CLIENTSOFTWARE\ROBOTCLIENT\ROBOTCLIENT\X64\DEBUG\OPENGL_INTERFACE.OBJ|C:\USERS\OLE MAGNUS\DESKTOP\MASTER THESIS\CLIENTSOFTWARE\ROBOTCLIENT\ROBOTCLIENT\X64\DEBUG\ROBOTCLIENT.OBJ|C:\USERS\OLE MAGNUS\DESKTOP\MASTER THESIS\CLIENTSOFTWARE\ROBOTCLIENT\ROBOTCLIENT\X64\DEBUG\ROBOTCLIENT.RES|C:\USERS\OLE MAGNUS\DESKTOP\MASTER THESIS\CLIENTSOFTWARE\ROBOTCLIENT\ROBOTCLIENT\X64\DEBUG\UTILITYFUNCTIONS.OBJ|C:\USERS\OLE MAGNUS\DESKTOP\MASTER THESIS\CLIENTSOFTWARE\ROBOTCLIENT\ROBOTCLIENT\X64\DEBUG\WEBCAMHANDLER.OBJ
C:\USERS\OLE MAGNUS\DESKTOP\MASTER THESIS\CLIENTSOFTWARE\ROBOTCLIENT\X64\DEBUG\ROBOTCLIENT.ILK
C:\USERS\OLE MAGNUS\DESKTOP\MASTER THESIS\CLIENTSOFTWARE\ROBOTCLIENT\X64\DEBUG\ROBOTCLIENT.EXE
C:\USERS\OLE MAGNUS\DESKTOP\MASTER THESIS\CLIENTSOFTWARE\ROBOTCLIENT\X64\DEBUG\ROBOTCLIENT.PDB
