^C:\USERS\RV\DESKTOP\OLE MAGNUS\ROBOTSERVER\ROBOTSERVER\STDAFX.CPP
C:\USERS\RV\DESKTOP\OLE MAGNUS\ROBOTSERVER\ROBOTSERVER\DEBUG\ROBOTSERVER.PCH
C:\USERS\RV\DESKTOP\OLE MAGNUS\ROBOTSERVER\ROBOTSERVER\DEBUG\VC120.PDB
C:\USERS\RV\DESKTOP\OLE MAGNUS\ROBOTSERVER\ROBOTSERVER\DEBUG\VC120.IDB
C:\USERS\RV\DESKTOP\OLE MAGNUS\ROBOTSERVER\ROBOTSERVER\DEBUG\STDAFX.OBJ
^C:\USERS\RV\DESKTOP\OLE MAGNUS\ROBOTSERVER\ROBOTSERVER\CONFIGREADER.CPP|C:\USERS\RV\DESKTOP\OLE MAGNUS\ROBOTSERVER\ROBOTSERVER\KINECT_INTERFACE.CPP|C:\USERS\RV\DESKTOP\OLE MAGNUS\ROBOTSERVER\ROBOTSERVER\MANIPULATORINTERFACE.CPP|C:\USERS\RV\DESKTOP\OLE MAGNUS\ROBOTSERVER\ROBOTSERVER\PANTILTUNIT.CPP|C:\USERS\RV\DESKTOP\OLE MAGNUS\ROBOTSERVER\ROBOTSERVER\ROBOTDRIVER.CPP|C:\USERS\RV\DESKTOP\OLE MAGNUS\ROBOTSERVER\ROBOTSERVER\ROBOTSERVER.CPP|C:\USERS\RV\DESKTOP\OLE MAGNUS\ROBOTSERVER\ROBOTSERVER\SERIALHANDLER.CPP
C:\USERS\RV\DESKTOP\OLE MAGNUS\ROBOTSERVER\ROBOTSERVER\DEBUG\VC120.PDB
C:\USERS\RV\DESKTOP\OLE MAGNUS\ROBOTSERVER\ROBOTSERVER\DEBUG\VC120.IDB
C:\USERS\RV\DESKTOP\OLE MAGNUS\ROBOTSERVER\ROBOTSERVER\DEBUG\CONFIGREADER.OBJ
C:\USERS\RV\DESKTOP\OLE MAGNUS\ROBOTSERVER\ROBOTSERVER\DEBUG\KINECT_INTERFACE.OBJ
C:\USERS\RV\DESKTOP\OLE MAGNUS\ROBOTSERVER\ROBOTSERVER\DEBUG\PANTILTUNIT.OBJ
C:\USERS\RV\DESKTOP\OLE MAGNUS\ROBOTSERVER\ROBOTSERVER\DEBUG\ROBOTDRIVER.OBJ
C:\USERS\RV\DESKTOP\OLE MAGNUS\ROBOTSERVER\ROBOTSERVER\DEBUG\ROBOTSERVER.OBJ
C:\USERS\RV\DESKTOP\OLE MAGNUS\ROBOTSERVER\ROBOTSERVER\DEBUG\SERIALHANDLER.OBJ
C:\USERS\RV\DESKTOP\OLE MAGNUS\ROBOTSERVER\ROBOTSERVER\DEBUG\MANIPULATORINTERFACE.OBJ
^C:\USERS\RV\DESKTOP\OLE MAGNUS\ROBOTSERVER\ROBOTSERVER\CONFIGREADER.CPP
C:\USERS\RV\DESKTOP\OLE MAGNUS\ROBOTSERVER\ROBOTSERVER\DEBUG\VC120.PDB
^C:\USERS\RV\DESKTOP\OLE MAGNUS\ROBOTSERVER\ROBOTSERVER\KINECT_INTERFACE.CPP
C:\USERS\RV\DESKTOP\OLE MAGNUS\ROBOTSERVER\ROBOTSERVER\DEBUG\VC120.PDB
^C:\USERS\RV\DESKTOP\OLE MAGNUS\ROBOTSERVER\ROBOTSERVER\MANIPULATORINTERFACE.CPP
C:\USERS\RV\DESKTOP\OLE MAGNUS\ROBOTSERVER\ROBOTSERVER\DEBUG\VC120.PDB
C:\USERS\RV\DESKTOP\OLE MAGNUS\ROBOTSERVER\ROBOTSERVER\DEBUG\VC120.IDB
C:\USERS\RV\DESKTOP\OLE MAGNUS\ROBOTSERVER\ROBOTSERVER\DEBUG\MANIPULATORINTERFACE.OBJ
^C:\USERS\RV\DESKTOP\OLE MAGNUS\ROBOTSERVER\ROBOTSERVER\PANTILTUNIT.CPP
C:\USERS\RV\DESKTOP\OLE MAGNUS\ROBOTSERVER\ROBOTSERVER\DEBUG\VC120.PDB
C:\USERS\RV\DESKTOP\OLE MAGNUS\ROBOTSERVER\ROBOTSERVER\DEBUG\VC120.IDB
C:\USERS\RV\DESKTOP\OLE MAGNUS\ROBOTSERVER\ROBOTSERVER\DEBUG\PANTILTUNIT.OBJ
^C:\USERS\RV\DESKTOP\OLE MAGNUS\ROBOTSERVER\ROBOTSERVER\ROBOTDRIVER.CPP
C:\USERS\RV\DESKTOP\OLE MAGNUS\ROBOTSERVER\ROBOTSERVER\DEBUG\VC120.PDB
^C:\USERS\RV\DESKTOP\OLE MAGNUS\ROBOTSERVER\ROBOTSERVER\ROBOTSERVER.CPP
C:\USERS\RV\DESKTOP\OLE MAGNUS\ROBOTSERVER\ROBOTSERVER\DEBUG\VC120.PDB
C:\USERS\RV\DESKTOP\OLE MAGNUS\ROBOTSERVER\ROBOTSERVER\DEBUG\VC120.IDB
C:\USERS\RV\DESKTOP\OLE MAGNUS\ROBOTSERVER\ROBOTSERVER\DEBUG\ROBOTSERVER.OBJ
^C:\USERS\RV\DESKTOP\OLE MAGNUS\ROBOTSERVER\ROBOTSERVER\SERIALHANDLER.CPP
C:\USERS\RV\DESKTOP\OLE MAGNUS\ROBOTSERVER\ROBOTSERVER\DEBUG\VC120.PDB
C:\USERS\RV\DESKTOP\OLE MAGNUS\ROBOTSERVER\ROBOTSERVER\DEBUG\VC120.IDB
C:\USERS\RV\DESKTOP\OLE MAGNUS\ROBOTSERVER\ROBOTSERVER\DEBUG\SERIALHANDLER.OBJ
^C:\USERS\RV\DESKTOP\OLE MAGNUS\ROBOTSERVER\ROBOTSERVER\PANTILTUNIT.CPP|C:\USERS\RV\DESKTOP\OLE MAGNUS\ROBOTSERVER\ROBOTSERVER\ROBOTDRIVER.CPP|C:\USERS\RV\DESKTOP\OLE MAGNUS\ROBOTSERVER\ROBOTSERVER\ROBOTSERVER.CPP|C:\USERS\RV\DESKTOP\OLE MAGNUS\ROBOTSERVER\ROBOTSERVER\SERIALHANDLER.CPP
C:\USERS\RV\DESKTOP\OLE MAGNUS\ROBOTSERVER\ROBOTSERVER\DEBUG\VC120.PDB
C:\USERS\RV\DESKTOP\OLE MAGNUS\ROBOTSERVER\ROBOTSERVER\DEBUG\VC120.IDB
C:\USERS\RV\DESKTOP\OLE MAGNUS\ROBOTSERVER\ROBOTSERVER\DEBUG\PANTILTUNIT.OBJ
C:\USERS\RV\DESKTOP\OLE MAGNUS\ROBOTSERVER\ROBOTSERVER\DEBUG\ROBOTDRIVER.OBJ
C:\USERS\RV\DESKTOP\OLE MAGNUS\ROBOTSERVER\ROBOTSERVER\DEBUG\SERIALHANDLER.OBJ
C:\USERS\RV\DESKTOP\OLE MAGNUS\ROBOTSERVER\ROBOTSERVER\DEBUG\ROBOTSERVER.OBJ
^C:\USERS\RV\DESKTOP\OLE MAGNUS\ROBOTSERVER\ROBOTSERVER\MANIPULATORINTERFACE.CPP|C:\USERS\RV\DESKTOP\OLE MAGNUS\ROBOTSERVER\ROBOTSERVER\ROBOTSERVER.CPP
C:\USERS\RV\DESKTOP\OLE MAGNUS\ROBOTSERVER\ROBOTSERVER\DEBUG\VC120.PDB
C:\USERS\RV\DESKTOP\OLE MAGNUS\ROBOTSERVER\ROBOTSERVER\DEBUG\VC120.IDB
C:\USERS\RV\DESKTOP\OLE MAGNUS\ROBOTSERVER\ROBOTSERVER\DEBUG\ROBOTSERVER.OBJ
C:\USERS\RV\DESKTOP\OLE MAGNUS\ROBOTSERVER\ROBOTSERVER\DEBUG\MANIPULATORINTERFACE.OBJ
^C:\USERS\OLE MAGNUS\DESKTOP\MASTER THESIS\APPLICATIONS\ROBOTSERVER\ROBOTSERVER\STDAFX.CPP
C:\USERS\OLE MAGNUS\DESKTOP\MASTER THESIS\APPLICATIONS\ROBOTSERVER\ROBOTSERVER\DEBUG\ROBOTSERVER.PCH
C:\USERS\OLE MAGNUS\DESKTOP\MASTER THESIS\APPLICATIONS\ROBOTSERVER\ROBOTSERVER\DEBUG\VC120.PDB
C:\USERS\OLE MAGNUS\DESKTOP\MASTER THESIS\APPLICATIONS\ROBOTSERVER\ROBOTSERVER\DEBUG\VC120.IDB
C:\USERS\OLE MAGNUS\DESKTOP\MASTER THESIS\APPLICATIONS\ROBOTSERVER\ROBOTSERVER\DEBUG\STDAFX.OBJ
^C:\USERS\OLE MAGNUS\DESKTOP\MASTER THESIS\APPLICATIONS\ROBOTSERVER\ROBOTSERVER\CONFIGREADER.CPP|C:\USERS\OLE MAGNUS\DESKTOP\MASTER THESIS\APPLICATIONS\ROBOTSERVER\ROBOTSERVER\KINECT_INTERFACE.CPP|C:\USERS\OLE MAGNUS\DESKTOP\MASTER THESIS\APPLICATIONS\ROBOTSERVER\ROBOTSERVER\MANIPULATORINTERFACE.CPP|C:\USERS\OLE MAGNUS\DESKTOP\MASTER THESIS\APPLICATIONS\ROBOTSERVER\ROBOTSERVER\PANTILTUNIT.CPP|C:\USERS\OLE MAGNUS\DESKTOP\MASTER THESIS\APPLICATIONS\ROBOTSERVER\ROBOTSERVER\ROBOTDRIVER.CPP|C:\USERS\OLE MAGNUS\DESKTOP\MASTER THESIS\APPLICATIONS\ROBOTSERVER\ROBOTSERVER\ROBOTSERVER.CPP|C:\USERS\OLE MAGNUS\DESKTOP\MASTER THESIS\APPLICATIONS\ROBOTSERVER\ROBOTSERVER\SERIALHANDLER.CPP
C:\USERS\OLE MAGNUS\DESKTOP\MASTER THESIS\APPLICATIONS\ROBOTSERVER\ROBOTSERVER\DEBUG\VC120.PDB
C:\USERS\OLE MAGNUS\DESKTOP\MASTER THESIS\APPLICATIONS\ROBOTSERVER\ROBOTSERVER\DEBUG\VC120.IDB
C:\USERS\OLE MAGNUS\DESKTOP\MASTER THESIS\APPLICATIONS\ROBOTSERVER\ROBOTSERVER\DEBUG\CONFIGREADER.OBJ
C:\USERS\OLE MAGNUS\DESKTOP\MASTER THESIS\APPLICATIONS\ROBOTSERVER\ROBOTSERVER\DEBUG\KINECT_INTERFACE.OBJ
C:\USERS\OLE MAGNUS\DESKTOP\MASTER THESIS\APPLICATIONS\ROBOTSERVER\ROBOTSERVER\DEBUG\MANIPULATORINTERFACE.OBJ
C:\USERS\OLE MAGNUS\DESKTOP\MASTER THESIS\APPLICATIONS\ROBOTSERVER\ROBOTSERVER\DEBUG\PANTILTUNIT.OBJ
C:\USERS\OLE MAGNUS\DESKTOP\MASTER THESIS\APPLICATIONS\ROBOTSERVER\ROBOTSERVER\DEBUG\ROBOTDRIVER.OBJ
C:\USERS\OLE MAGNUS\DESKTOP\MASTER THESIS\APPLICATIONS\ROBOTSERVER\ROBOTSERVER\DEBUG\ROBOTSERVER.OBJ
C:\USERS\OLE MAGNUS\DESKTOP\MASTER THESIS\APPLICATIONS\ROBOTSERVER\ROBOTSERVER\DEBUG\SERIALHANDLER.OBJ
^C:\USERS\OLE MAGNUS\DESKTOP\MASTER THESIS\APPLICATIONS\ROBOTSERVER\ROBOTSERVER\CONFIGREADER.CPP
C:\USERS\OLE MAGNUS\DESKTOP\MASTER THESIS\APPLICATIONS\ROBOTSERVER\ROBOTSERVER\DEBUG\VC120.PDB
^C:\USERS\OLE MAGNUS\DESKTOP\MASTER THESIS\APPLICATIONS\ROBOTSERVER\ROBOTSERVER\KINECT_INTERFACE.CPP
C:\USERS\OLE MAGNUS\DESKTOP\MASTER THESIS\APPLICATIONS\ROBOTSERVER\ROBOTSERVER\DEBUG\VC120.PDB
^C:\USERS\OLE MAGNUS\DESKTOP\MASTER THESIS\APPLICATIONS\ROBOTSERVER\ROBOTSERVER\MANIPULATORINTERFACE.CPP
C:\USERS\OLE MAGNUS\DESKTOP\MASTER THESIS\APPLICATIONS\ROBOTSERVER\ROBOTSERVER\DEBUG\VC120.PDB
^C:\USERS\OLE MAGNUS\DESKTOP\MASTER THESIS\APPLICATIONS\ROBOTSERVER\ROBOTSERVER\PANTILTUNIT.CPP
C:\USERS\OLE MAGNUS\DESKTOP\MASTER THESIS\APPLICATIONS\ROBOTSERVER\ROBOTSERVER\DEBUG\VC120.PDB
^C:\USERS\OLE MAGNUS\DESKTOP\MASTER THESIS\APPLICATIONS\ROBOTSERVER\ROBOTSERVER\ROBOTDRIVER.CPP
C:\USERS\OLE MAGNUS\DESKTOP\MASTER THESIS\APPLICATIONS\ROBOTSERVER\ROBOTSERVER\DEBUG\VC120.PDB
^C:\USERS\OLE MAGNUS\DESKTOP\MASTER THESIS\APPLICATIONS\ROBOTSERVER\ROBOTSERVER\ROBOTSERVER.CPP
C:\USERS\OLE MAGNUS\DESKTOP\MASTER THESIS\APPLICATIONS\ROBOTSERVER\ROBOTSERVER\DEBUG\VC120.PDB
^C:\USERS\OLE MAGNUS\DESKTOP\MASTER THESIS\APPLICATIONS\ROBOTSERVER\ROBOTSERVER\SERIALHANDLER.CPP
C:\USERS\OLE MAGNUS\DESKTOP\MASTER THESIS\APPLICATIONS\ROBOTSERVER\ROBOTSERVER\DEBUG\VC120.PDB
